{
	"info": {
		"_postman_id": "eac5ae36-cc3d-4033-b846-76d48f9acfe2",
		"name": "PlatformBuilders - Rafael",
		"schema": "https://schema.getpostman.com/json/collection/v2.1.0/collection.json"
	},
	"item": [
		{
			"name": "Get Customer by ID",
			"protocolProfileBehavior": {
				"disableBodyPruning": true
			},
			"request": {
				"auth": {
					"type": "noauth"
				},
				"method": "GET",
				"header": [
					{
						"key": "Content-Type",
						"value": "application/json"
					}
				],
				"body": {
					"mode": "raw",
					"raw": ""
				},
				"url": {
					"raw": "http://localhost:8089/customer/1",
					"protocol": "http",
					"host": [
						"localhost"
					],
					"port": "8089",
					"path": [
						"customer",
						"1"
					]
				}
			},
			"response": []
		},
		{
			"name": "Get All Customers",
			"protocolProfileBehavior": {
				"disableBodyPruning": true
			},
			"request": {
				"auth": {
					"type": "noauth"
				},
				"method": "GET",
				"header": [
					{
						"key": "Content-Type",
						"value": "application/json"
					}
				],
				"body": {
					"mode": "raw",
					"raw": ""
				},
				"url": {
					"raw": "http://localhost:8089/customer",
					"protocol": "http",
					"host": [
						"localhost"
					],
					"port": "8089",
					"path": [
						"customer"
					]
				}
			},
			"response": []
		},
		{
			"name": "Get Customers by name",
			"protocolProfileBehavior": {
				"disableBodyPruning": true
			},
			"request": {
				"auth": {
					"type": "noauth"
				},
				"method": "GET",
				"header": [
					{
						"key": "Content-Type",
						"value": "application/json"
					}
				],
				"body": {
					"mode": "raw",
					"raw": ""
				},
				"url": {
					"raw": "http://localhost:8089/customer?nome=Neves",
					"protocol": "http",
					"host": [
						"localhost"
					],
					"port": "8089",
					"path": [
						"customer"
					],
					"query": [
						{
							"key": "nome",
							"value": "Neves"
						}
					]
				}
			},
			"response": []
		},
		{
			"name": "Get Customers by CPF",
			"protocolProfileBehavior": {
				"disableBodyPruning": true
			},
			"request": {
				"auth": {
					"type": "noauth"
				},
				"method": "GET",
				"header": [
					{
						"key": "Content-Type",
						"value": "application/json"
					}
				],
				"body": {
					"mode": "raw",
					"raw": ""
				},
				"url": {
					"raw": "http://localhost:8089/customer?cpf=316.294.539-94",
					"protocol": "http",
					"host": [
						"localhost"
					],
					"port": "8089",
					"path": [
						"customer"
					],
					"query": [
						{
							"key": "cpf",
							"value": "316.294.539-94"
						}
					]
				}
			},
			"response": []
		},
		{
			"name": "Get Customers by name and CPF",
			"protocolProfileBehavior": {
				"disableBodyPruning": true
			},
			"request": {
				"auth": {
					"type": "noauth"
				},
				"method": "GET",
				"header": [
					{
						"key": "Content-Type",
						"value": "application/json"
					}
				],
				"body": {
					"mode": "raw",
					"raw": ""
				},
				"url": {
					"raw": "http://localhost:8089/customer?cpf=316.294.539-94&nome=Neves",
					"protocol": "http",
					"host": [
						"localhost"
					],
					"port": "8089",
					"path": [
						"customer"
					],
					"query": [
						{
							"key": "cpf",
							"value": "316.294.539-94"
						},
						{
							"key": "nome",
							"value": "Neves"
						}
					]
				}
			},
			"response": []
		},
		{
			"name": "Get Customers with Pagination",
			"protocolProfileBehavior": {
				"disableBodyPruning": true
			},
			"request": {
				"auth": {
					"type": "noauth"
				},
				"method": "GET",
				"header": [
					{
						"key": "Content-Type",
						"value": "application/json"
					}
				],
				"body": {
					"mode": "raw",
					"raw": ""
				},
				"url": {
					"raw": "http://localhost:8089/customer?page=1&size=5",
					"protocol": "http",
					"host": [
						"localhost"
					],
					"port": "8089",
					"path": [
						"customer"
					],
					"query": [
						{
							"key": "page",
							"value": "1"
						},
						{
							"key": "size",
							"value": "5"
						}
					]
				}
			},
			"response": []
		},
		{
			"name": "Create Customer",
			"request": {
				"auth": {
					"type": "noauth"
				},
				"method": "POST",
				"header": [
					{
						"key": "Content-Type",
						"value": "application/json"
					}
				],
				"body": {
					"mode": "raw",
					"raw": "{\n    \"nome\": \"Fabiana Alessandra Fogaça\",\n    \"cpf\": \"423.277.322-39\",\n    \"dataNascimento\": \"2000-10-04\"\n}"
				},
				"url": {
					"raw": "http://localhost:8089/customer/",
					"protocol": "http",
					"host": [
						"localhost"
					],
					"port": "8089",
					"path": [
						"customer",
						""
					]
				}
			},
			"response": []
		},
		{
			"name": "Remove customer by ID",
			"request": {
				"auth": {
					"type": "noauth"
				},
				"method": "DELETE",
				"header": [
					{
						"key": "Content-Type",
						"value": "application/json"
					}
				],
				"body": {
					"mode": "raw",
					"raw": ""
				},
				"url": {
					"raw": "http://localhost:8089/customer/1",
					"protocol": "http",
					"host": [
						"localhost"
					],
					"port": "8089",
					"path": [
						"customer",
						"1"
					]
				}
			},
			"response": []
		},
		{
			"name": "Update customer by ID",
			"request": {
				"auth": {
					"type": "noauth"
				},
				"method": "PUT",
				"header": [
					{
						"key": "Content-Type",
						"value": "application/json"
					}
				],
				"body": {
					"mode": "raw",
					"raw": "{\n    \"nome\": \"Mirian Alessandra Fogaça\",\n    \"cpf\": \"423.277.322-39\",\n    \"dataNascimento\": \"2000-10-04\"\n}"
				},
				"url": {
					"raw": "http://localhost:8089/customer/17",
					"protocol": "http",
					"host": [
						"localhost"
					],
					"port": "8089",
					"path": [
						"customer",
						"17"
					]
				}
			},
			"response": []
		},
		{
			"name": "Update customer name by ID",
			"request": {
				"auth": {
					"type": "noauth"
				},
				"method": "PATCH",
				"header": [
					{
						"key": "Content-Type",
						"value": "application/json"
					}
				],
				"body": {
					"mode": "raw",
					"raw": "{\n    \"nome\": \"Fabiana Alessandra Fogaça\"\n}"
				},
				"url": {
					"raw": "http://localhost:8089/customer/17",
					"protocol": "http",
					"host": [
						"localhost"
					],
					"port": "8089",
					"path": [
						"customer",
						"17"
					]
				}
			},
			"response": []
		}
	],
	"protocolProfileBehavior": {}
}